dump_final.vcd
$date
	Tue Dec 09 23:16:26 2025
$end
$version
	Icarus Verilog
$end
$timescale
	1s
$end
$scope module tb $end
$var reg 1 ! actual_taken_E $end
$var reg 1 " clk $end
$var reg 32 # imm_branch_D [31:0] $end
$var reg 1 $ is_branch_D $end
$var reg 1 % is_branch_E $end
$var reg 7 & opcode_D [6:0] $end
$var reg 1 ' predict_taken_D $end
$var reg 1 ( predict_taken_E $end
$var reg 1 ) rst $end
$var real 1 * CPI_active $end
$var real 1 + CPI_total $end
$var real 1 , IPC_active $end
$var real 1 - IPC_total $end
$var integer 32 . active_cycles [31:0] $end
$var real 1 / branch_acc $end
$var integer 32 0 branch_correct [31:0] $end
$var real 1 1 branch_miss_rate $end
$var integer 32 2 branch_taken [31:0] $end
$var integer 32 3 branch_total [31:0] $end
$var integer 32 4 commit_count [31:0] $end
$var integer 32 5 cycle_count [31:0] $end
$var integer 32 6 first_commit_cycle [31:0] $end
$var integer 32 7 last_commit_cycle [31:0] $end
$scope module dut $end
$var wire 1 " clk $end
$var wire 1 ) rst $end
$var wire 32 8 WriteDataM [31:0] $end
$var wire 32 9 ResultW [31:0] $end
$var wire 1 : ResultSrcW $end
$var wire 1 ; ResultSrcM $end
$var wire 1 < ResultSrcE $end
$var wire 1 = RegWriteW $end
$var wire 1 > RegWriteM $end
$var wire 1 ? RegWriteE $end
$var wire 32 @ ReadDataW [31:0] $end
$var wire 5 A RS2_E [4:0] $end
$var wire 5 B RS1_E [4:0] $end
$var wire 5 C RD_M [4:0] $end
$var wire 5 D RD_E [4:0] $end
$var wire 5 E RDW [4:0] $end
$var wire 32 F RD2_E [31:0] $end
$var wire 32 G RD1_E [31:0] $end
$var wire 32 H PCTargetE [31:0] $end
$var wire 1 I PCSrcE $end
$var wire 32 J PCPlus4W [31:0] $end
$var wire 32 K PCPlus4M [31:0] $end
$var wire 32 L PCPlus4E [31:0] $end
$var wire 32 M PCPlus4D [31:0] $end
$var wire 32 N PCE [31:0] $end
$var wire 32 O PCD [31:0] $end
$var wire 1 P MemWriteM $end
$var wire 1 Q MemWriteE $end
$var wire 32 R InstrD [31:0] $end
$var wire 32 S Imm_Ext_E [31:0] $end
$var wire 2 T ForwardBE [1:0] $end
$var wire 2 U ForwardAE [1:0] $end
$var wire 1 V BranchE $end
$var wire 32 W ALU_ResultW [31:0] $end
$var wire 32 X ALU_ResultM [31:0] $end
$var wire 1 Y ALUSrcE $end
$var wire 3 Z ALUControlE [2:0] $end
$scope module u_decode $end
$var wire 3 [ ALUControlE [2:0] $end
$var wire 1 Y ALUSrcE $end
$var wire 1 V BranchE $end
$var wire 32 \ Imm_Ext_E [31:0] $end
$var wire 1 Q MemWriteE $end
$var wire 32 ] PCE [31:0] $end
$var wire 32 ^ PCPlus4E [31:0] $end
$var wire 32 _ RD1_E [31:0] $end
$var wire 32 ` RD2_E [31:0] $end
$var wire 5 a RD_E [4:0] $end
$var wire 5 b RS1_E [4:0] $end
$var wire 5 c RS2_E [4:0] $end
$var wire 1 ? RegWriteE $end
$var wire 1 < ResultSrcE $end
$var wire 1 " clk $end
$var wire 1 ) rst $end
$var wire 5 d rs2 [4:0] $end
$var wire 5 e rs1 [4:0] $end
$var wire 5 f rd [4:0] $end
$var wire 7 g opcode [6:0] $end
$var wire 7 h funct7 [6:0] $end
$var wire 3 i funct3 [2:0] $end
$var wire 32 j ResultW [31:0] $end
$var wire 1 k ResultSrcD $end
$var wire 1 = RegWriteW $end
$var wire 1 l RegWriteD $end
$var wire 5 m RDW [4:0] $end
$var wire 32 n RD2_D [31:0] $end
$var wire 32 o RD1_D [31:0] $end
$var wire 32 p PCPlus4D [31:0] $end
$var wire 32 q PCD [31:0] $end
$var wire 1 r MemWriteD $end
$var wire 32 s InstrD [31:0] $end
$var wire 32 t Imm_Ext_D [31:0] $end
$var wire 2 u ImmSrc [1:0] $end
$var wire 1 v BranchD $end
$var wire 1 w ALUSrcD $end
$var wire 2 x ALUOp [1:0] $end
$var wire 3 y ALUControlD [2:0] $end
$var reg 3 z ALUControlD_r [2:0] $end
$var reg 1 Y ALUSrcD_r $end
$var reg 1 V BranchD_r $end
$var reg 32 { Imm_Ext_D_r [31:0] $end
$var reg 1 | MemWriteD_r $end
$var reg 32 } PCD_r [31:0] $end
$var reg 32 ~ PCPlus4D_r [31:0] $end
$var reg 32 !" RD1_D_r [31:0] $end
$var reg 32 "" RD2_D_r [31:0] $end
$var reg 1 #" RegWriteD_r $end
$var reg 1 $" ResultSrcD_r $end
$var reg 5 %" rd_r [4:0] $end
$scope module alu_dec $end
$var wire 3 &" funct3 [2:0] $end
$var wire 7 '" funct7 [6:0] $end
$var wire 7 (" op [6:0] $end
$var wire 2 )" ALUOp [1:0] $end
$var wire 3 *" ALUControl [2:0] $end
$upscope $end
$scope module imm_ext $end
$var wire 32 +" In [31:0] $end
$var wire 32 ," Imm_Ext [31:0] $end
$var wire 2 -" ImmSrc [1:0] $end
$upscope $end
$scope module main_dec $end
$var wire 1 w ALUSrc $end
$var wire 7 ." Op [6:0] $end
$var wire 1 l RegWrite $end
$var wire 1 k ResultSrc $end
$var wire 1 r MemWrite $end
$var wire 2 /" ImmSrc [1:0] $end
$var wire 1 v Branch $end
$var wire 2 0" ALUOp [1:0] $end
$upscope $end
$scope module rf $end
$var wire 5 1" A1 [4:0] $end
$var wire 5 2" A2 [4:0] $end
$var wire 1 " clk $end
$var wire 1 ) rst $end
$var wire 1 = WE3 $end
$var wire 32 3" WD3 [31:0] $end
$var wire 32 4" RD2 [31:0] $end
$var wire 32 5" RD1 [31:0] $end
$var wire 5 6" A3 [4:0] $end
$upscope $end
$upscope $end
$scope module u_execute $end
$var wire 3 7" ALUControlE [2:0] $end
$var wire 1 Y ALUSrcE $end
$var wire 1 V BranchE $end
$var wire 32 8" Imm_Ext_E [31:0] $end
$var wire 1 Q MemWriteE $end
$var wire 1 P MemWriteM $end
$var wire 32 9" PCE [31:0] $end
$var wire 32 :" PCPlus4E [31:0] $end
$var wire 32 ;" PCPlus4M [31:0] $end
$var wire 1 I PCSrcE $end
$var wire 32 <" RD1_E [31:0] $end
$var wire 32 =" RD2_E [31:0] $end
$var wire 5 >" RD_E [4:0] $end
$var wire 5 ?" RD_M [4:0] $end
$var wire 1 ? RegWriteE $end
$var wire 1 > RegWriteM $end
$var wire 1 < ResultSrcE $end
$var wire 1 ; ResultSrcM $end
$var wire 32 @" WriteDataM [31:0] $end
$var wire 1 " clk $end
$var wire 3 A" funct3E [2:0] $end
$var wire 1 ) rst $end
$var wire 1 B" ZeroE $end
$var wire 32 C" Src_B_interim [31:0] $end
$var wire 32 D" Src_B [31:0] $end
$var wire 32 E" Src_A [31:0] $end
$var wire 32 F" ResultW [31:0] $end
$var wire 32 G" ResultE [31:0] $end
$var wire 32 H" PCTargetE [31:0] $end
$var wire 2 I" ForwardB_E [1:0] $end
$var wire 2 J" ForwardA_E [1:0] $end
$var wire 32 K" ALU_ResultM [31:0] $end
$var reg 1 L" MemWriteE_r $end
$var reg 32 M" PCPlus4E_r [31:0] $end
$var reg 32 N" RD2_E_r [31:0] $end
$var reg 5 O" RD_E_r [4:0] $end
$var reg 1 > RegWriteE_r $end
$var reg 32 P" ResultE_r [31:0] $end
$var reg 1 Q" ResultSrcE_r $end
$var reg 1 R" branch_taken $end
$scope module alu $end
$var wire 3 S" ALUControl [2:0] $end
$var wire 1 T" Carry $end
$var wire 1 U" OverFlow $end
$var wire 1 B" Zero $end
$var wire 32 V" Sum [31:0] $end
$var wire 32 W" Result [31:0] $end
$var wire 1 X" Negative $end
$var wire 1 Y" Cout $end
$var wire 32 Z" B [31:0] $end
$var wire 32 [" A [31:0] $end
$upscope $end
$scope module alu_src_mux $end
$var wire 32 \" b [31:0] $end
$var wire 1 Y s $end
$var wire 32 ]" c [31:0] $end
$var wire 32 ^" a [31:0] $end
$upscope $end
$scope module br_add $end
$var wire 32 _" a [31:0] $end
$var wire 32 `" b [31:0] $end
$var wire 32 a" c [31:0] $end
$upscope $end
$scope module srca_mux $end
$var wire 32 b" a [31:0] $end
$var wire 32 c" c [31:0] $end
$var wire 2 d" s [1:0] $end
$var wire 32 e" d [31:0] $end
$var wire 32 f" b [31:0] $end
$upscope $end
$scope module srcb_mux $end
$var wire 32 g" a [31:0] $end
$var wire 32 h" c [31:0] $end
$var wire 2 i" s [1:0] $end
$var wire 32 j" d [31:0] $end
$var wire 32 k" b [31:0] $end
$upscope $end
$upscope $end
$scope module u_fetch $end
$var wire 1 I PCSrcE $end
$var wire 32 l" PCTargetE [31:0] $end
$var wire 1 " clk $end
$var wire 1 ) rst $end
$var wire 1 m" PCSrcE_safe $end
$var wire 32 n" PCPlus4F [31:0] $end
$var wire 32 o" PCPlus4D [31:0] $end
$var wire 32 p" PCNext [31:0] $end
$var wire 32 q" PCF [31:0] $end
$var wire 32 r" PCD [31:0] $end
$var wire 32 s" InstrF [31:0] $end
$var wire 32 t" InstrD [31:0] $end
$var reg 32 u" InstrF_reg [31:0] $end
$var reg 32 v" PCF_reg [31:0] $end
$var reg 32 w" PCPlus4F_reg [31:0] $end
$scope module u_imem $end
$var wire 1 ) rst $end
$var wire 32 x" RD [31:0] $end
$var wire 32 y" A [31:0] $end
$upscope $end
$scope module u_pc $end
$var wire 32 z" PC_Next [31:0] $end
$var wire 1 " clk $end
$var wire 1 ) rst $end
$var reg 32 {" PC [31:0] $end
$upscope $end
$scope module u_pc_adder $end
$var wire 32 |" a [31:0] $end
$var wire 32 }" b [31:0] $end
$var wire 32 ~" c [31:0] $end
$upscope $end
$upscope $end
$scope module u_hazard $end
$var wire 5 !# RD_M [4:0] $end
$var wire 1 > RegWriteM $end
$var wire 5 "# Rs1_E [4:0] $end
$var wire 5 ## Rs2_E [4:0] $end
$var wire 1 ) rst $end
$var wire 1 = RegWriteW $end
$var wire 5 $# RD_W [4:0] $end
$var wire 2 %# ForwardBE [1:0] $end
$var wire 2 &# ForwardAE [1:0] $end
$upscope $end
$scope module u_memory $end
$var wire 32 '# ALU_ResultM [31:0] $end
$var wire 32 (# ALU_ResultW [31:0] $end
$var wire 1 P MemWriteM $end
$var wire 32 )# PCPlus4M [31:0] $end
$var wire 32 *# PCPlus4W [31:0] $end
$var wire 5 +# RD_M [4:0] $end
$var wire 5 ,# RD_W [4:0] $end
$var wire 32 -# ReadDataW [31:0] $end
$var wire 1 > RegWriteM $end
$var wire 1 = RegWriteW $end
$var wire 1 ; ResultSrcM $end
$var wire 1 : ResultSrcW $end
$var wire 32 .# WriteDataM [31:0] $end
$var wire 1 " clk $end
$var wire 1 ) rst $end
$var wire 32 /# ReadDataM [31:0] $end
$var reg 32 0# ALU_ResultM_r [31:0] $end
$var reg 32 1# PCPlus4M_r [31:0] $end
$var reg 5 2# RD_M_r [4:0] $end
$var reg 32 3# ReadDataM_r [31:0] $end
$var reg 1 = RegWriteM_r $end
$var reg 1 : ResultSrcM_r $end
$scope module dmem $end
$var wire 32 4# A [31:0] $end
$var wire 32 5# WD [31:0] $end
$var wire 1 P WE $end
$var wire 1 " clk $end
$var wire 1 ) rst $end
$var wire 32 6# RD [31:0] $end
$upscope $end
$upscope $end
$scope module u_writeback $end
$var wire 32 7# ALU_ResultW [31:0] $end
$var wire 32 8# PCPlus4W [31:0] $end
$var wire 32 9# ReadDataW [31:0] $end
$var wire 1 : ResultSrcW $end
$var wire 1 " clk $end
$var wire 1 ) rst $end
$var wire 32 :# ResultW [31:0] $end
$scope module result_mux $end
$var wire 32 ;# a [31:0] $end
$var wire 32 <# b [31:0] $end
$var wire 1 : s $end
$var wire 32 =# c [31:0] $end
$upscope $end
$upscope $end
$upscope $end
$upscope $end
$enddefinitions $end
$comment Show the parameter values. $end
$dumpall
$end
#0
$dumpvars
b0 =#
b0 <#
b0 ;#
b0 :#
b0 9#
b0 8#
b0 7#
b0 6#
b0 5#
b0 4#
b0 3#
b0 2#
b0 1#
b0 0#
b0 /#
b0 .#
b0 -#
b0 ,#
b0 +#
b0 *#
b0 )#
b0 (#
b0 '#
b0 &#
b0 %#
b0 $#
b0 ##
b0 "#
b0 !#
bx ~"
b100 }"
bx |"
bx {"
bx z"
bx y"
b0 x"
b0 w"
b0 v"
b0 u"
b0 t"
b0 s"
b0 r"
bx q"
bx p"
b0 o"
bx n"
0m"
b0 l"
b0 k"
b0 j"
b0 i"
b0 h"
b0 g"
b0 f"
b0 e"
b0 d"
b0 c"
b0 b"
b0 a"
b0 `"
b0 _"
b0 ^"
b0 ]"
b0 \"
b0 ["
b0 Z"
0Y"
0X"
b0 W"
b0 V"
0U"
0T"
b0 S"
0R"
0Q"
b0 P"
b0 O"
b0 N"
b0 M"
0L"
b0 K"
b0 J"
b0 I"
b0 H"
b0 G"
b0 F"
b0 E"
b0 D"
b0 C"
1B"
bz A"
b0 @"
b0 ?"
b0 >"
b0 ="
b0 <"
b0 ;"
b0 :"
b0 9"
b0 8"
b0 7"
b0 6"
b0 5"
b0 4"
b0 3"
b0 2"
b0 1"
b0 0"
b0 /"
b0 ."
b0 -"
b0 ,"
b0 +"
b0 *"
b0 )"
bz ("
b0 '"
b0 &"
b0 %"
0$"
0#"
b0 ""
b0 !"
b0 ~
b0 }
0|
b0 {
b0 z
b0 y
b0 x
0w
0v
b0 u
b0 t
b0 s
0r
b0 q
b0 p
b0 o
b0 n
b0 m
0l
0k
b0 j
b0 i
b0 h
b0 g
b0 f
b0 e
b0 d
b0 c
b0 b
b0 a
b0 `
b0 _
b0 ^
b0 ]
b0 \
b0 [
b0 Z
0Y
b0 X
b0 W
0V
b0 U
b0 T
b0 S
b0 R
0Q
0P
b0 O
b0 N
b0 M
b0 L
b0 K
b0 J
0I
b0 H
b0 G
b0 F
b0 E
b0 D
b0 C
b0 B
b0 A
b0 @
0?
0>
0=
0<
0;
0:
b0 9
b0 8
b0 7
b0 6
b0 5
b0 4
b0 3
b0 2
r0 1
b0 0
r0 /
bx .
r0 -
r0 ,
r0 +
r0 *
0)
x(
x'
bx &
x%
x$
bx #
0"
x!
$end
#50
b100 p"
b100 z"
b100 n"
b100 ~"
b0 q"
b0 y"
b0 {"
b0 |"
1"
#100
b111110100000000000000010010011 s"
b111110100000000000000010010011 x"
0"
1)
#150
b1111101000 t
b1111101000 ,"
bx n
bx 4"
1l
1w
b100010011 s"
b100010011 x"
b11111 h
b11111 '"
b1000 A
b1000 c
b1000 ##
b1000 d
b1000 2"
b1 f
b10011 g
b10011 ."
b1000 p"
b1000 z"
b100 M
b100 p
b100 o"
b111110100000000000000010010011 R
b111110100000000000000010010011 s
b111110100000000000000010010011 +"
b111110100000000000000010010011 t"
0!
b0 #
0$
b0 &
b1000 n"
b1000 ~"
b100 q"
b100 y"
b100 {"
b100 |"
b100 w"
b111110100000000000000010010011 u"
b1 5
1"
#200
0"
#250
0B"
b1111101000 G"
b1111101000 W"
b1111101000 V"
b0 t
b0 ,"
b0 n
b0 4"
b100010000000100010011 s"
b100010000000100010011 x"
b1111101000 D"
b1111101000 Z"
b1111101000 ]"
b0 h
b0 '"
b0 A
b0 c
b0 ##
b0 d
b0 2"
b10 f
b1100 p"
b1100 z"
bx C"
bx ^"
bx j"
b1000 M
b1000 p
b1000 o"
b100 O
b100 q
b100 r"
b100010011 R
b100010011 s
b100010011 +"
b100010011 t"
b1100 n"
b1100 ~"
b1000 q"
b1000 y"
b1000 {"
b1000 |"
0%
0'
b101111100000 #
b10011 &
b100 L
b100 ^
b100 :"
b100 ~
b1 D
b1 a
b1 >"
b1 %"
b1111101000 H
b1111101000 H"
b1111101000 a"
b1111101000 l"
b1111101000 S
b1111101000 \
b1111101000 {
b1111101000 8"
b1111101000 \"
b1111101000 `"
bx F
bx `
bx ""
bx ="
bx g"
1Y
1?
1#"
b1000 w"
b100 v"
b100010011 u"
b10 5
1"
#300
0"
#350
b10 T
b10 I"
b10 i"
b10 %#
1B"
b0 G"
b0 W"
b1 t
b1 ,"
bx n
bx 4"
bx o
bx 5"
b0 V"
b1000010000000110010011 s"
b1000010000000110010011 x"
b1 A
b1 c
b1 ##
b1 d
b1 2"
b10 B
b10 b
b10 "#
b10 e
b10 1"
b10000 p"
b10000 z"
b1100 M
b1100 p
b1100 o"
b1000 O
b1000 q
b1000 r"
b100010000000100010011 R
b100010000000100010011 s
b100010000000100010011 +"
b100010000000100010011 t"
b0 D"
b0 Z"
b0 ]"
b1111101000 C"
b1111101000 ^"
b1111101000 j"
bx /#
bx 6#
0(
b10 #
b10000 n"
b10000 ~"
b1100 q"
b1100 y"
b1100 {"
b1100 |"
b1100 w"
b1000 v"
b100010000000100010011 u"
b1000 L
b1000 ^
b1000 :"
b1000 ~
b100 N
b100 ]
b100 }
b100 9"
b100 _"
b10 D
b10 a
b10 >"
b10 %"
b100 H
b100 H"
b100 a"
b100 l"
b0 S
b0 \
b0 {
b0 8"
b0 \"
b0 `"
b0 F
b0 `
b0 ""
b0 ="
b0 g"
b1111101000 X
b1111101000 K"
b1111101000 P"
b1111101000 c"
b1111101000 h"
b1111101000 '#
b1111101000 4#
bx 8
bx @"
bx .#
bx 5#
bx N"
b100 K
b100 ;"
b100 )#
b100 M"
b1 C
b1 ?"
b1 O"
b1 !#
b1 +#
1>
b11 5
1"
#400
0"
#450
0U"
0X"
0B"
b1 G"
b1 W"
0T"
b0 C"
b0 ^"
b0 j"
b10 U
b10 J"
b10 d"
b10 &#
b10 T
b10 I"
b10 i"
b10 %#
b1 V"
0Y"
b10 t
b10 ,"
b100010000010001100011 s"
b100010000010001100011 x"
b10 A
b10 c
b10 ##
b10 d
b10 2"
b11 f
b10100 p"
b10100 z"
b1111101000 9
b1111101000 j
b1111101000 3"
b1111101000 F"
b1111101000 f"
b1111101000 k"
b1111101000 :#
b1111101000 =#
b0 /#
b0 6#
b1 D"
b1 Z"
b1 ]"
b0 E"
b0 ["
b0 e"
b10000 M
b10000 p
b10000 o"
b1100 O
b1100 q
b1100 r"
b1000010000000110010011 R
b1000010000000110010011 s
b1000010000000110010011 +"
b1000010000000110010011 t"
b10100 n"
b10100 ~"
b10000 q"
b10000 y"
b10000 {"
b10000 |"
bx @
bx -#
bx 3#
bx 9#
bx <#
b1111101000 W
b1111101000 (#
b1111101000 0#
b1111101000 7#
b1111101000 ;#
b100 J
b100 *#
b100 8#
b100 1#
b1 E
b1 m
b1 6"
b1 $#
b1 ,#
b1 2#
1=
b0 X
b0 K"
b0 P"
b0 c"
b0 h"
b0 '#
b0 4#
b1111101000 8
b1111101000 @"
b1111101000 .#
b1111101000 5#
b1111101000 N"
b1000 K
b1000 ;"
b1000 )#
b1000 M"
b10 C
b10 ?"
b10 O"
b10 !#
b10 +#
b1100 L
b1100 ^
b1100 :"
b1100 ~
b1000 N
b1000 ]
b1000 }
b1000 9"
b1000 _"
b1001 H
b1001 H"
b1001 a"
b1001 l"
b1 S
b1 \
b1 {
b1 8"
b1 \"
b1 `"
bx F
bx `
bx ""
bx ="
bx g"
bx G
bx _
bx !"
bx <"
bx b"
b10000 w"
b1100 v"
b1000010000000110010011 u"
b100 5
1"
#500
0"
#550
b1 y
b1 *"
b0 T
b0 I"
b0 i"
b0 %#
b10 u
b10 -"
b10 /"
b1 x
b1 )"
b1 0"
b11 G"
b11 W"
b0 t
b0 ,"
b1111101000 n
b1111101000 4"
0l
0w
b11 V"
b1 E"
b1 ["
b1 e"
bx C"
bx ^"
bx j"
b11111110000000000000101011100011 s"
b11111110000000000000101011100011 x"
b1 A
b1 c
b1 ##
b1 d
b1 2"
b1000 f
1v
b1100011 g
b1100011 ."
b11000 p"
b11000 z"
b10100 M
b10100 p
b10100 o"
b10000 O
b10000 q
b10000 r"
b100010000010001100011 R
b100010000010001100011 s
b100010000010001100011 +"
b100010000010001100011 t"
b10 D"
b10 Z"
b10 ]"
bx /#
bx 6#
b0 9
b0 j
b0 3"
b0 F"
b0 f"
b0 k"
b0 :#
b0 =#
b100000000010 #
b11000 n"
b11000 ~"
b10100 q"
b10100 y"
b10100 {"
b10100 |"
b10100 w"
b10000 v"
b100010000010001100011 u"
b10000 L
b10000 ^
b10000 :"
b10000 ~
b1100 N
b1100 ]
b1100 }
b1100 9"
b1100 _"
b11 D
b11 a
b11 >"
b11 %"
b1110 H
b1110 H"
b1110 a"
b1110 l"
b10 S
b10 \
b10 {
b10 8"
b10 \"
b10 `"
b1 X
b1 K"
b1 P"
b1 c"
b1 h"
b1 '#
b1 4#
b0 8
b0 @"
b0 .#
b0 5#
b0 N"
b1100 K
b1100 ;"
b1100 )#
b1100 M"
b0 @
b0 -#
b0 3#
b0 9#
b0 <#
b0 W
b0 (#
b0 0#
b0 7#
b0 ;#
b1000 J
b1000 *#
b1000 8#
b1000 1#
b10 E
b10 m
b10 6"
b10 $#
b10 ,#
b10 2#
b1 4
b101 7
b101 6
b101 5
1"
#600
0"
#650
xU"
xB"
xX"
bx G"
bx W"
xT"
bx E"
bx ["
bx e"
b0 U
b0 J"
b0 d"
b0 &#
bx V"
xY"
b0 n
b0 4"
b10000001000010011 s"
b10000001000010011 x"
b1111111 h
b1111111 '"
b0 A
b0 c
b0 ##
b0 d
b0 2"
b0 B
b0 b
b0 "#
b0 e
b0 1"
b10101 f
b11100 p"
b11100 z"
b0 o
b0 5"
b1 9
b1 j
b1 3"
b1 F"
b1 f"
b1 k"
b1 :#
b1 =#
b1111101000 D"
b1111101000 Z"
b1111101000 ]"
b1111101000 C"
b1111101000 ^"
b1111101000 j"
b11000 M
b11000 p
b11000 o"
b10100 O
b10100 q
b10100 r"
b11111110000000000000101011100011 R
b11111110000000000000101011100011 s
b11111110000000000000101011100011 +"
b11111110000000000000101011100011 t"
b11100 n"
b11100 ~"
b11000 q"
b11000 y"
b11000 {"
b11000 |"
b1000 #
1$
b1100011 &
bx @
bx -#
bx 3#
bx 9#
bx <#
b1 W
b1 (#
b1 0#
b1 7#
b1 ;#
b1100 J
b1100 *#
b1100 8#
b1100 1#
b11 X
b11 K"
b11 P"
b11 c"
b11 h"
b11 '#
b11 4#
bx 8
bx @"
bx .#
bx 5#
bx N"
b10000 K
b10000 ;"
b10000 )#
b10000 M"
b11 C
b11 ?"
b11 O"
b11 !#
b11 +#
b10100 L
b10100 ^
b10100 :"
b10100 ~
b10000 N
b10000 ]
b10000 }
b10000 9"
b10000 _"
b1000 D
b1000 a
b1000 >"
b1000 %"
b10000 H
b10000 H"
b10000 a"
b10000 l"
b0 S
b0 \
b0 {
b0 8"
b0 \"
b0 `"
b1111101000 F
b1111101000 `
b1111101000 ""
b1111101000 ="
b1111101000 g"
b1 Z
b1 [
b1 z
b1 7"
b1 S"
1V
0Y
0?
0#"
b11000 w"
b10100 v"
b11111110000000000000101011100011 u"
b110 5
b10 4
1"
#700
0"
#750
0U"
0X"
1B"
b0 y
b0 *"
b0 G"
b0 W"
b0 u
b0 -"
b0 /"
b0 x
b0 )"
b0 0"
0T"
b1 o
b1 5"
1l
1w
b0 V"
0Y"
bx s"
bx x"
b0 h
b0 '"
b10 B
b10 b
b10 "#
b10 e
b10 1"
b100 f
0v
b10011 g
b10011 ."
b0 D"
b0 Z"
b0 ]"
b100000 p"
b100000 z"
b11100 M
b11100 p
b11100 o"
b11000 O
b11000 q
b11000 r"
b10000001000010011 R
b10000001000010011 s
b10000001000010011 +"
b10000001000010011 t"
b0 C"
b0 ^"
b0 j"
b0 E"
b0 ["
b0 e"
b11 9
b11 j
b11 3"
b11 F"
b11 f"
b11 k"
b11 :#
b11 =#
1%
b11111111111111111111111111110100 #
b100000 n"
b100000 ~"
b11100 q"
b11100 y"
b11100 {"
b11100 |"
b11100 w"
b11000 v"
b10000001000010011 u"
b11000 L
b11000 ^
b11000 :"
b11000 ~
b10100 H
b10100 H"
b10100 a"
b10100 l"
b10100 N
b10100 ]
b10100 }
b10100 9"
b10100 _"
b10101 D
b10101 a
b10101 >"
b10101 %"
b0 F
b0 `
b0 ""
b0 ="
b0 g"
b0 G
b0 _
b0 !"
b0 <"
b0 b"
bx X
bx K"
bx P"
bx c"
bx h"
bx '#
bx 4#
b1111101000 8
b1111101000 @"
b1111101000 .#
b1111101000 5#
b1111101000 N"
b10100 K
b10100 ;"
b10100 )#
b10100 M"
b1000 C
b1000 ?"
b1000 O"
b1000 !#
b1000 +#
0>
b11 W
b11 (#
b11 0#
b11 7#
b11 ;#
b10000 J
b10000 *#
b10000 8#
b10000 1#
b11 E
b11 m
b11 6"
b11 $#
b11 ,#
b11 2#
b11 4
b111 7
b111 5
1"
#800
0"
#850
0B"
bx y
bx *"
b1 G"
b1 W"
b1 V"
bx t
bx ,"
bx n
bx 4"
bx o
bx 5"
xl
bx u
bx -"
bx /"
xw
bx x
bx )"
bx 0"
bx h
bx '"
bx A
bx c
bx ##
bx d
bx 2"
bx B
bx b
bx "#
bx e
bx 1"
bx i
bx &"
bx f
xr
xk
xv
bx g
bx ."
b100100 p"
b100100 z"
bx 9
bx j
bx 3"
bx F"
bx f"
bx k"
bx :#
bx =#
b0 /#
b0 6#
b1 E"
b1 ["
b1 e"
b100000 M
b100000 p
b100000 o"
b11100 O
b11100 q
b11100 r"
bx R
bx s
bx +"
bx t"
b100100 n"
b100100 ~"
b100000 q"
b100000 y"
b100000 {"
b100000 |"
1'
b100 #
0$
b10011 &
bx W
bx (#
bx 0#
bx 7#
bx ;#
b10100 J
b10100 *#
b10100 8#
b10100 1#
b1000 E
b1000 m
b1000 6"
b1000 $#
b1000 ,#
b1000 2#
0=
b0 X
b0 K"
b0 P"
b0 c"
b0 h"
b0 '#
b0 4#
b0 8
b0 @"
b0 .#
b0 5#
b0 N"
b11000 K
b11000 ;"
b11000 )#
b11000 M"
b10101 C
b10101 ?"
b10101 O"
b10101 !#
b10101 +#
b11100 L
b11100 ^
b11100 :"
b11100 ~
b11000 H
b11000 H"
b11000 a"
b11000 l"
b11000 N
b11000 ]
b11000 }
b11000 9"
b11000 _"
b100 D
b100 a
b100 >"
b100 %"
b1 G
b1 _
b1 !"
b1 <"
b1 b"
b0 Z
b0 [
b0 z
b0 7"
b0 S"
0V
1Y
1?
1#"
b100000 w"
b11100 v"
bx u"
b1000 5
b100 4
b1 0
b1 3
1"
#900
0"
#950
xU"
xX"
bx0 U
bx0 J"
bx0 d"
bx0 &#
bx0 T
bx0 I"
bx0 i"
bx0 %#
xT"
bx V"
xY"
xB"
b101000 p"
b101000 z"
b100100 M
b100100 p
b100100 o"
b100000 O
b100000 q
b100000 r"
bx D"
bx Z"
bx ]"
bx C"
bx ^"
bx j"
bx E"
bx ["
bx e"
bx G"
bx W"
bx /#
bx 6#
b0 9
b0 j
b0 3"
b0 F"
b0 f"
b0 k"
b0 :#
b0 =#
1(
0%
0'
bx0 #
x$
bx &
b101000 n"
b101000 ~"
b100100 q"
b100100 y"
b100100 {"
b100100 |"
b100100 w"
b100000 v"
b100000 L
b100000 ^
b100000 :"
b100000 ~
b11100 N
b11100 ]
b11100 }
b11100 9"
b11100 _"
bx D
bx a
bx >"
bx %"
bx H
bx H"
bx a"
bx l"
bx S
bx \
bx {
bx 8"
bx \"
bx `"
bx F
bx `
bx ""
bx ="
bx g"
bx G
bx _
bx !"
bx <"
bx b"
bx Z
bx [
bx z
bx 7"
bx S"
xV
x<
x$"
xQ
x|
xY
x?
x#"
b1 X
b1 K"
b1 P"
b1 c"
b1 h"
b1 '#
b1 4#
b11100 K
b11100 ;"
b11100 )#
b11100 M"
b100 C
b100 ?"
b100 O"
b100 !#
b100 +#
1>
b0 @
b0 -#
b0 3#
b0 9#
b0 <#
b0 W
b0 (#
b0 0#
b0 7#
b0 ;#
b11000 J
b11000 *#
b11000 8#
b11000 1#
b10101 E
b10101 m
b10101 6"
b10101 $#
b10101 ,#
b10101 2#
b10 0
b10 3
b1001 5
1"
#1000
0"
#1050
bx T
bx I"
bx i"
bx %#
bx U
bx J"
bx d"
bx &#
b101100 p"
b101100 z"
b1 9
b1 j
b1 3"
b1 F"
b1 f"
b1 k"
b1 :#
b1 =#
b101000 M
b101000 p
b101000 o"
b100100 O
b100100 q
b100100 r"
b101100 n"
b101100 ~"
b101000 q"
b101000 y"
b101000 {"
b101000 |"
0(
x%
x'
bx @
bx -#
bx 3#
bx 9#
bx <#
b1 W
b1 (#
b1 0#
b1 7#
b1 ;#
b11100 J
b11100 *#
b11100 8#
b11100 1#
b100 E
b100 m
b100 6"
b100 $#
b100 ,#
b100 2#
1=
bx X
bx K"
bx P"
bx c"
bx h"
bx '#
bx 4#
bx 8
bx @"
bx .#
bx 5#
bx N"
b100000 K
b100000 ;"
b100000 )#
b100000 M"
bx C
bx ?"
bx O"
bx !#
bx +#
x;
xQ"
xP
xL"
x>
b100100 L
b100100 ^
b100100 :"
b100100 ~
b100000 N
b100000 ]
b100000 }
b100000 9"
b100000 _"
b101000 w"
b100100 v"
b1010 5
1"
#1100
0"
#1150
b110000 p"
b110000 z"
b101100 M
b101100 p
b101100 o"
b101000 O
b101000 q
b101000 r"
bx 9
bx j
bx 3"
bx F"
bx f"
bx k"
bx :#
bx =#
x(
b110000 n"
b110000 ~"
b101100 q"
b101100 y"
b101100 {"
b101100 |"
b101100 w"
b101000 v"
b101000 L
b101000 ^
b101000 :"
b101000 ~
b100100 N
b100100 ]
b100100 }
b100100 9"
b100100 _"
b100100 K
b100100 ;"
b100100 )#
b100100 M"
bx W
bx (#
bx 0#
bx 7#
bx ;#
b100000 J
b100000 *#
b100000 8#
b100000 1#
bx E
bx m
bx 6"
bx $#
bx ,#
bx 2#
x:
x=
b101 4
b1011 7
b1011 5
1"
#1200
0"
